…
Due to copyright reasons, we cannot bundle the full text of New York Times, Süddeutsche Zeitung and Le Fegaro news articles in this package.

The first few rows of the data look like so.

``` r
require(rectr)
require(tibble)
require(dplyr)
require(quanteda)
readRDS("~/dev/infocrap/final_data_endefr.RDS")
```

    ## # A tibble: 3,391 x 10
    ##    path  id    pubdate headline lede  body  lang  content    nt tokenized_conte…
    ##    <chr> <chr> <chr>   <chr>    <chr> <chr> <chr> <chr>   <int> <list>          
    ##  1 ./pa… arti… 2 Nove… "Maladi… "Ave… "Dan… FR    "Avec …  1026 <chr [1,138]>   
    ##  2 ./pa… arti… 2 Nove… "« Cela… "LE … "Pat… FR    "LE FI…   734 <chr [820]>     
    ##  3 ./pa… arti… 2 Nove… "L'Iran… "L'a… "de … FR    "L'anc…   984 <chr [1,081]>   
    ##  4 ./pa… arti… 2 Nove… "Matthi… "Le … "Mat… FR    "Le pr…  1077 <chr [1,213]>   
    ##  5 ./pa… arti… 2 Nove… "Les 31… "Lan… "EUR… FR    "Lancé…  1012 <chr [1,115]>   
    ##  6 ./pa… arti… 2 Nove… "Genera… "Apr… "À l… FR    "Après…   800 <chr [874]>     
    ##  7 ./pa… arti… 2 Nove… "La dis… "Seu… "Les… FR    "Seul …  1171 <chr [1,318]>   
    ##  8 ./pa… arti… 2 Nove… "Les ca… "Ils… "Ce … FR    "Ils d…   552 <chr [612]>     
    ##  9 ./pa… arti… 2 Nove… "Le pré… "FRA… "À l… FR    "FRANÇ…   506 <chr [589]>     
    ## 10 ./pa… arti… 2 Nove… "La nui… "  Ç… "Au … FR    "  ÇA …   516 <chr [552]>     
    ## # … with 3,381 more rows
…
Human coding
============

The coded data by two coders is available in this package.

``` r
paris_human_coding
```

    ## # A tibble: 240 x 5
    ##    pair_num  a1id  a2id coder1 coder2
    ##       <int> <int> <int>  <dbl>  <int>
    ##  1        1   217  2960      2      1
    ##  2        2   876  1668      1      1
    ##  3        3  2762  1566      1      1
    ##  4        4   490  2720      1      1
    ##  5        5  2965  1727      1      2
    ##  6        6    20  1654      1      1
    ##  7        7  1162  2632      4      2
    ##  8        8  2548  1823      1      1
    ##  9        9   221  1398      4      2
    ## 10       10  2712  2200      4      2
    ## # … with 230 more rows
…
