…
    ## The following objects are masked from 'package:stats':
    ## 
    ##     filter, lag

    ## The following objects are masked from 'package:base':
    ## 
    ##     intersect, setdiff, setequal, union

``` r
wiki
```

    ## # A tibble: 342 x 3
    ##    title                     content                                       lang 
    ##    <chr>                     <chr>                                         <chr>
    ##  1 Wismar                    "Die Hansestadt Wismar liegt an der Ostseekü… de   
    ##  2 Bamberg                   "Bamberg (mittelalterlich: Babenberg, bamber… de   
    ##  3 Grube Messel              "Die Grube Messel in Messel im Landkreis Dar… de   
    ##  4 Adenine                   "Adenine, benannt nach der Nukleinbase Adeni… de   
    ##  5 Haskell (programming lan… "Haskell /ˈhæskəl/ is a standardized, genera… en   
    ##  6 SPARQL                    "SPARQL ist eine graph-basierte Abfragesprac… de   
    ##  7 Trier                     "Trier (französisch Trèves, luxemburgisch Tr… de   
    ##  8 ATS (programming languag… "ATS (Applied Type System) is a programming … en   
    ##  9 Nationalpark Niedersächs… "Der Nationalpark Niedersächsisches Wattenme… de   
    ## 10 Wittenberg                "Wittenberg, officially Lutherstadt Wittenbe… en   
    ## # … with 332 more rows
…
